14.06.02  1:09 Labyrinth7x7      0:02:10 [THUBI-BIR       ]    2671938
14.06.02 21:25 Labyrinth7x7      0:02:11 [THUBI-BIR       ]    2671938
14.06.02 21:41 Labyrinth7x7      0:01:58 [THUBI-BIR       ]    2671938
17.06.02 23:37 Labyrinth7x7      0:03:17 [THUBI-SB        ]    2671938
18.06.02 21:27 Labyrinth7x7      0:00:31 [THUBI-LAPTOP    ]    2671938
18.06.02 21:32 Labyrinth7x7Lit   0:02:45 [THUBI-LAPTOP    ]    2732432
20.06.02 22:05 Labyrinth7x7      0:02:12 [THUBI-BIR       ]    2716938
20.06.02 22:14 Labyrinth7x7Lit   0:07:20 [THUBI-BIR       ]    2732432
09.08.02 20:59 Labyrinth7x7x7    0:02:14 [THUBI-BIR       ]    2716938
09.08.02 21:22 Labyrinth7x7x7    0:02:11 [THUBI-BIR       ]    2716938
05.09.02 23:39 Labyrinth7x7x7    0:02:11 [THUBI-BIR       ]    2716938
13.09.02 17:37 Labyrinth7x7x7    0:10:27 [THUBI-BIR       ]    2716938
17.09.02 12:04 Labyrinth7x7x7    0:02:11 [THUBI-BIR       ]    2716938
01.11.02  0:15 Labyrinth7x7x7    0:00:47 [THUBI-BIR       ]    2707209
14.03.03  0:07 Labyrinth7x7x7    0:02:14 [THUBI-BIR       ]    2707209
14.03.03 21:33 Labyrinth7x7x7    0:02:25 [THUBI-BIR       ]    2707209
27.07.2003 11:50 Labyrinth7x7x7    0:01:07 [THUBI-LAPTOP    ]    2729421
01.10.2003 14:00 Labyrinth7x7x7    0:00:37 [THUBI-BLUE      ]    2729421
02.02.2004 17:32 Labyrinth7x7x7    0:02:09 [THUBI-BIR       ]    2754772
11.05.2005 19:24 Labyrinth7x7x7    0:00:17 [THUBI-BLUE      ]    2756832
12.05.2005 11:00 Labyrinth7x7x7    0:00:18 [THUBI-BLUE      ]    2756832
12.05.2005 11:00 Labyrinth_60      0:00:00 [THUBI-BLUE      ]     234124
20.05.2005 14:46 Labyrinth7x7x7    0:00:17 [THUBI-BLUE      ]    2756832
20.05.2005 14:46 Labyrinth_60      0:00:01 [THUBI-BLUE      ]     234124
17.08.2005 15:07 Labyrinth_60      0:00:01 [THUBI-BLUE      ]     234124
17.08.2005 15:08 Labyrinth7x7x7    0:00:16 [THUBI-BLUE      ]    2756832
